lab_8_2_/simulation/qsim/lab_8_2_.msim.vcd
$comment
	File created using the following command:
		vcd file lab_8_2_.msim.vcd -direction
$end
$date
	Sun May 28 16:23:19 2023
$end
$version
	ModelSim Version 10.4b
$end
$timescale
	1ps
$end

$scope module lab_8_2__vlg_vec_tst $end
$var reg 1 ! a $end
$var reg 1 " b $end
$var reg 1 # RESET $end
$var wire 1 $ X1 $end
$var wire 1 % X2 $end
$var wire 1 & X3 $end
$var wire 1 ' X4 $end

$scope module i1 $end
$var wire 1 ( gnd $end
$var wire 1 ) vcc $end
$var wire 1 * unknown $end
$var tri1 1 + devclrn $end
$var tri1 1 , devpor $end
$var tri1 1 - devoe $end
$var wire 1 . ~QUARTUS_CREATED_GND~I_combout $end
$var wire 1 / ~QUARTUS_CREATED_UNVM~~busy $end
$var wire 1 0 ~QUARTUS_CREATED_ADC1~~eoc $end
$var wire 1 1 ~QUARTUS_CREATED_ADC2~~eoc $end
$var wire 1 2 X3~output_o $end
$var wire 1 3 X4~output_o $end
$var wire 1 4 X2~output_o $end
$var wire 1 5 X1~output_o $end
$var wire 1 6 b~input_o $end
$var wire 1 7 a~input_o $end
$var wire 1 8 inst11~0_combout $end
$var wire 1 9 inst20|inst~0_combout $end
$var wire 1 : RESET~input_o $end
$var wire 1 ; inst20|inst~1_combout $end
$var wire 1 < inst20|inst4~combout $end
$var wire 1 = inst25~0_combout $end
$var wire 1 > inst19|inst4~combout $end
$var wire 1 ? inst19|inst~1_combout $end
$var wire 1 @ inst19|inst~combout $end
$var wire 1 A inst21~0_combout $end
$var wire 1 B inst18|inst4~combout $end
$var wire 1 C inst18|inst~1_combout $end
$var wire 1 D inst32~combout $end
$var wire 1 E inst33~combout $end
$var wire 1 F inst2|inst~1_combout $end
$var wire 1 G inst2|inst4~combout $end
$var wire 1 H inst9~combout $end
$var wire 1 I inst3|inst~1_combout $end
$var wire 1 J inst3|inst4~combout $end
$var wire 1 K inst3|inst~combout $end
$var wire 1 L inst4|inst4~combout $end
$var wire 1 M inst4|inst~0_combout $end
$var wire 1 N inst4|inst~1_combout $end
$var wire 1 O inst16~combout $end
$var wire 1 P inst15~combout $end
$upscope $end
$upscope $end
$enddefinitions $end
#0
$dumpvars
0!
0"
1#
0$
0%
0&
0'
0(
1)
x*
1+
1,
1-
0.
z/
z0
z1
02
03
04
05
06
07
08
19
1:
1;
0<
0=
0>
0?
1@
0A
0B
1C
0D
0E
1F
0G
0H
1I
0J
1K
0L
1M
1N
0O
0P
$end
#10000
0#
0:
0I
#20000
1!
17
0M
1A
09
1J
0K
#40000
1"
16
0A
18
1L
0N
#100000
0!
07
1H
1=
08
1K
1>
0J
0@
1P
15
1$
#120000
0"
06
1M
0H
0=
1N
0L
0P
05
0$
#130000
1#
1:
1I
1@
0>
19
#140000
0#
0:
0I
#150000
1!
17
0M
1A
09
1J
0K
#170000
1"
16
0A
18
1L
0N
#230000
0"
06
1A
08
1G
0F
1O
14
1%
#260000
0!
07
1M
0A
19
1N
0L
0O
04
1I
0%
1K
0M
0J
0I
1F
0G
1M
#270000
1#
1:
1I
#280000
0#
0:
0I
#310000
1"
16
0M
1=
09
1>
0@
#350000
1!
17
0=
18
1<
0;
#430000
0"
06
1A
08
1J
1B
0K
0C
1D
12
1&
#460000
0!
07
0A
19
1;
0<
0D
02
1?
0&
1@
1C
0>
09
0B
0?
19
#470000
1#
1:
1I
1K
1M
0J
#480000
0#
0:
0I
#500000
1"
16
0M
1=
09
1>
0@
#520000
1!
17
0=
18
1<
0;
#570000
0!
07
1=
08
1?
1@
0>
1E
13
1'
#630000
0"
06
1M
0=
19
0?
1;
0<
0E
03
0'
