lab_8_1_/simulation/qsim/lab_8_1_.msim.vcd
$comment
	File created using the following command:
		vcd file lab_8_1_.msim.vcd -direction
$end
$date
	Sun May 28 13:51:17 2023
$end
$version
	ModelSim Version 10.4b
$end
$timescale
	1ps
$end

$scope module lab_8_1__vlg_vec_tst $end
$var reg 1 ! A $end
$var reg 1 " B $end
$var reg 1 # C $end
$var reg 1 $ D $end
$var reg 1 % E $end
$var wire 1 & f1 $end
$var wire 1 ' f2 $end
$var wire 1 ( f3 $end
$var wire 1 ) pin_name1 $end
$var wire 1 * pin_name2 $end
$var wire 1 + pin_name3 $end
$var wire 1 , pin_name4 $end
$var wire 1 - pin_name5 $end
$var wire 1 . pin_name6 $end
$var wire 1 / pin_name7 $end

$scope module i1 $end
$var wire 1 0 gnd $end
$var wire 1 1 vcc $end
$var wire 1 2 unknown $end
$var tri1 1 3 devclrn $end
$var tri1 1 4 devpor $end
$var tri1 1 5 devoe $end
$var wire 1 6 ~QUARTUS_CREATED_GND~I_combout $end
$var wire 1 7 ~QUARTUS_CREATED_UNVM~~busy $end
$var wire 1 8 ~QUARTUS_CREATED_ADC1~~eoc $end
$var wire 1 9 ~QUARTUS_CREATED_ADC2~~eoc $end
$var wire 1 : f1~output_o $end
$var wire 1 ; f2~output_o $end
$var wire 1 < f3~output_o $end
$var wire 1 = pin_name1~output_o $end
$var wire 1 > pin_name2~output_o $end
$var wire 1 ? pin_name3~output_o $end
$var wire 1 @ pin_name4~output_o $end
$var wire 1 A pin_name5~output_o $end
$var wire 1 B pin_name6~output_o $end
$var wire 1 C pin_name7~output_o $end
$var wire 1 D C~input_o $end
$var wire 1 E A~input_o $end
$var wire 1 F B~input_o $end
$var wire 1 G E~input_o $end
$var wire 1 H inst9~0_combout $end
$var wire 1 I D~input_o $end
$var wire 1 J inst13~0_combout $end
$var wire 1 K inst13~1_combout $end
$var wire 1 L inst15~0_combout $end
$upscope $end
$upscope $end
$enddefinitions $end
#0
$dumpvars
0!
0"
0#
0$
0%
0&
1'
0(
0)
0*
0+
0,
0-
0.
0/
00
11
x2
13
14
15
06
z7
z8
z9
0:
1;
0<
0=
0>
0?
0@
0A
0B
0C
0D
0E
0F
0G
0H
0I
1J
1K
0L
$end
#10000
1!
1#
1$
1I
1D
1E
0J
1L
1H
1:
1<
1(
1&
0K
0;
0'
#20000
0!
0#
0$
0I
0D
0E
1J
0L
0H
0:
0<
0(
0&
1K
1;
1'
#30000
1!
1#
1D
1E
0J
1H
1:
1&
0K
0;
0'
#40000
0!
0#
0D
0E
1J
0H
0:
0&
1K
1;
1'
#50000
1%
1!
1E
1G
#60000
0%
0!
0E
0G
#70000
1"
1#
1!
1E
1D
1F
0J
1H
1:
1&
#80000
0"
0#
0!
0E
0D
0F
1J
0K
0H
0:
0;
0'
0&
1K
1;
1'
#90000
1$
1%
1!
1E
1G
1I
#100000
0$
0%
0!
0E
0G
0I
#110000
1#
1$
1%
1G
1I
1D
0J
#120000
0#
0$
0%
0G
0I
0D
1J
0K
0;
0'
1K
1;
1'
