lab_8_4/simulation/qsim/lab_8_4.msim.vcd
$comment
	File created using the following command:
		vcd file lab_8_4.msim.vcd -direction
$end
$date
	Mon May 29 17:34:53 2023
$end
$version
	ModelSim Version 10.4b
$end
$timescale
	1ps
$end

$scope module lab_8_4_vlg_vec_tst $end
$var reg 1 ! R $end
$var reg 1 " S $end
$var wire 1 # p1 $end
$var wire 1 $ p2 $end
$var wire 1 % p3 $end
$var wire 1 & p4 $end

$scope module i1 $end
$var wire 1 ' gnd $end
$var wire 1 ( vcc $end
$var wire 1 ) unknown $end
$var tri1 1 * devclrn $end
$var tri1 1 + devpor $end
$var tri1 1 , devoe $end
$var wire 1 - ~QUARTUS_CREATED_GND~I_combout $end
$var wire 1 . ~QUARTUS_CREATED_UNVM~~busy $end
$var wire 1 / ~QUARTUS_CREATED_ADC1~~eoc $end
$var wire 1 0 ~QUARTUS_CREATED_ADC2~~eoc $end
$var wire 1 1 p1~output_o $end
$var wire 1 2 p2~output_o $end
$var wire 1 3 p3~output_o $end
$var wire 1 4 p4~output_o $end
$var wire 1 5 R~input_o $end
$var wire 1 6 S~input_o $end
$var wire 1 7 inst|inst~combout $end
$var wire 1 8 inst|inst~clkctrl_outclk $end
$var wire 1 9 inst2~0_combout $end
$var wire 1 : inst2~q $end
$var wire 1 ; inst3~0_combout $end
$var wire 1 < inst3~q $end
$var wire 1 = inst4~0_combout $end
$var wire 1 > inst4~q $end
$var wire 1 ? inst111~0_combout $end
$var wire 1 @ inst111~q $end
$upscope $end
$upscope $end
$enddefinitions $end
#0
$dumpvars
0!
0"
0#
0$
0%
0&
0'
1(
x)
1*
1+
1,
0-
z.
z/
z0
01
02
03
04
05
06
x7
x8
09
0:
1;
0<
1=
0>
1?
0@
$end
#10000
1"
16
17
18
#20000
0"
06
#30000
1!
15
07
08
#40000
0!
05
#50000
1"
16
17
18
1@
1>
1<
13
14
11
1#
1&
1%
0?
19
#60000
0"
06
#70000
1!
15
07
08
#80000
0!
05
#90000
1"
16
17
18
0@
1:
12
01
0#
1$
1?
0;
09
#100000
0"
06
#110000
1!
15
07
08
#120000
0!
05
#130000
1"
16
17
18
1@
0<
0:
02
03
11
1#
0%
0$
19
#140000
0"
06
#150000
1!
15
07
08
#160000
0!
05
#170000
1"
16
17
18
1:
12
1$
0=
#180000
0"
06
#190000
1!
15
07
08
#200000
0!
05
#210000
1"
16
17
18
0>
04
0&
09
#220000
0"
06
#230000
1!
15
07
08
#240000
0!
05
#250000
1"
16
17
18
0:
02
0$
0?
1;
19
#260000
0"
06
#270000
1!
15
07
08
#280000
0!
05
#290000
1"
16
17
18
0@
1<
1:
12
13
01
0#
1%
1$
1?
09
#300000
0"
06
#310000
1!
15
07
08
#320000
0!
05
#330000
1"
16
17
18
1@
0:
02
11
1#
0$
0?
0;
#340000
0"
06
#350000
1!
15
07
08
#360000
0!
05
#370000
1"
16
17
18
0@
0<
03
01
0#
0%
1?
1=
1;
#380000
0"
06
#390000
1!
15
07
08
#400000
0!
05
#410000
1"
16
17
18
1@
1>
1<
13
14
11
1#
1&
1%
0?
19
#420000
0"
06
#430000
1!
15
07
08
#440000
0!
05
